<?xml version="1.0" encoding="utf-8"?>
<!-- Generator: Adobe Illustrator 19.0.1, SVG Export Plug-In . SVG Version: 6.00 Build 0)  -->
<!DOCTYPE svg PUBLIC "-//W3C//DTD SVG 1.1//EN" "http://www.w3.org/Graphics/SVG/1.1/DTD/svg11.dtd">
<svg version="1.1" id="Layer_1" xmlns="http://www.w3.org/2000/svg" xmlns:xlink="http://www.w3.org/1999/xlink" x="0px" y="0px"
	 viewBox="0 0 30 30" style="enable-background:new 0 0 30 30;" xml:space="preserve">
<g>
	<path d="M9.2,1.2C11,0.4,13,0,15,0s4,0.4,5.8,1.2c1.8,0.8,3.4,1.9,4.8,3.2C27,5.7,28,7.3,28.8,9.2C29.6,11,30,13,30,15
		s-0.4,4-1.2,5.8c-0.8,1.9-1.9,3.4-3.2,4.8c-1.3,1.3-2.9,2.4-4.8,3.2C19,29.6,17,30,15,30s-4-0.4-5.8-1.2C7.3,28,5.7,27,4.4,25.6
		C3,24.3,2,22.7,1.2,20.8C0.4,19,0,17,0,15s0.4-4,1.2-5.8C2,7.3,3,5.7,4.4,4.4C5.7,3.1,7.3,2,9.2,1.2z M24.4,20.6L18.7,15l5.6-5.6
		l-3.8-3.8L15,11.2L9.4,5.6L5.6,9.4l5.6,5.6l-5.6,5.6l3.8,3.8l5.6-5.6l5.6,5.6L24.4,20.6z"/>
</g>
</svg>
