<?xml version="1.0" encoding="utf-8"?>
<!-- Generator: Adobe Illustrator 19.0.1, SVG Export Plug-In . SVG Version: 6.00 Build 0)  -->
<!DOCTYPE svg PUBLIC "-//W3C//DTD SVG 1.1//EN" "http://www.w3.org/Graphics/SVG/1.1/DTD/svg11.dtd">
<svg version="1.1" id="Layer_1" xmlns="http://www.w3.org/2000/svg" xmlns:xlink="http://www.w3.org/1999/xlink" x="0px" y="0px"
	 viewBox="0 0 30 30" style="enable-background:new 0 0 30 30;" xml:space="preserve">
<style type="text/css">
	.st0{fill:#FFFFFF;}
</style>
<g>
	<path class="st0" d="M22.5,28c-2.3,1.3-4.8,2-7.5,2c-2,0-4-0.4-5.8-1.2C7.3,28,5.7,27,4.4,25.6C3,24.3,2,22.7,1.2,20.8
		C0.4,19,0,17,0,15c0-2,0.4-4,1.2-5.8C2,7.3,3,5.7,4.4,4.4S7.3,2,9.2,1.2C11,0.4,13,0,15,0c2.7,0,5.2,0.7,7.5,2
		c2.3,1.3,4.1,3.2,5.5,5.5s2,4.8,2,7.5c0,2.7-0.7,5.2-2,7.5S24.8,26.7,22.5,28z M16.5,17.4c0-0.5,0.1-0.9,0.3-1.2
		c0.2-0.3,0.7-0.8,1.5-1.3c1.2-0.9,2-1.6,2.4-2.3c0.4-0.6,0.6-1.4,0.6-2.4c0-1.4-0.5-2.5-1.5-3.3c-1-0.8-2.4-1.2-4.1-1.2
		c-2.1,0-4.1,0.5-5.9,1.6l1.4,2.7c1.6-0.8,3-1.2,4.3-1.2c0.7,0,1.3,0.1,1.7,0.4c0.4,0.3,0.6,0.7,0.6,1.2c0,0.5-0.1,1-0.4,1.3
		c-0.3,0.4-0.9,0.9-1.7,1.5c-0.9,0.7-1.6,1.4-1.9,1.9c-0.3,0.6-0.5,1.3-0.5,2.1v0.9h3.3V17.4z M15,24.6c0.7,0,1.2-0.2,1.6-0.6
		c0.4-0.4,0.6-0.9,0.6-1.5c0-0.7-0.2-1.2-0.6-1.6c-0.4-0.4-0.9-0.6-1.6-0.6c-0.7,0-1.3,0.2-1.6,0.5c-0.4,0.4-0.6,0.9-0.6,1.6
		c0,0.7,0.2,1.2,0.6,1.6C13.8,24.4,14.3,24.6,15,24.6z"/>
</g>
</svg>
