<?xml version="1.0" encoding="utf-8"?>
<!-- Generator: Adobe Illustrator 19.0.1, SVG Export Plug-In . SVG Version: 6.00 Build 0)  -->
<!DOCTYPE svg PUBLIC "-//W3C//DTD SVG 1.1//EN" "http://www.w3.org/Graphics/SVG/1.1/DTD/svg11.dtd">
<svg version="1.1" id="Layer_1" xmlns="http://www.w3.org/2000/svg" xmlns:xlink="http://www.w3.org/1999/xlink" x="0px" y="0px"
	 viewBox="0 0 20 20" enable-background="new 0 0 20 20" xml:space="preserve">
<path d="M20,1.4v17.1c0,0.8-0.7,1.4-1.5,1.4h-17C0.7,20,0,19.4,0,18.6V1.4C0,0.6,0.7,0,1.5,0h17C19.3,0,20,0.6,20,1.4z M14,2.7
	l0,3.2l3.1,0V3.1V2.7l-0.4,0L14,2.7z M6.7,9.8c0,1.8,1.5,3.3,3.3,3.3c1.8,0,3.3-1.5,3.3-3.3c0-0.7-0.2-1.4-0.6-1.9
	c-0.6-0.8-1.6-1.4-2.7-1.4S7.9,7.1,7.3,7.9C7,8.5,6.7,9.1,6.7,9.8z M17.5,7.9h-2.8c0.2,0.6,0.4,1.2,0.4,1.9c0,2.8-2.3,5.1-5.1,5.1
	c-2.8,0-5.1-2.3-5.1-5.1c0-0.7,0.1-1.3,0.4-1.9H2.5v7.6c0,1,0.8,1.8,1.8,1.8h11.4c1,0,1.8-0.8,1.8-1.8V7.9z"/>
</svg>
