<?xml version="1.0" encoding="utf-8"?>
<!-- Generator: Adobe Illustrator 19.0.1, SVG Export Plug-In . SVG Version: 6.00 Build 0)  -->
<!DOCTYPE svg PUBLIC "-//W3C//DTD SVG 1.1//EN" "http://www.w3.org/Graphics/SVG/1.1/DTD/svg11.dtd">
<svg version="1.1" id="Layer_1" xmlns="http://www.w3.org/2000/svg" xmlns:xlink="http://www.w3.org/1999/xlink" x="0px" y="0px"
	 viewBox="-237 241 24 20" style="enable-background:new -237 241 24 20;" xml:space="preserve">
<style type="text/css">
	.st0{fill:#FFFFFF;}
</style>
<path class="st0" d="M-213.5,244c-0.7,1-1.5,1.9-2.5,2.6c0,0.1,0,0.4,0,0.6c0,1.3-0.2,2.7-0.6,3.8c-0.4,1.2-1,2.6-1.8,3.6
	c-0.8,1.3-1.8,2.3-2.9,3.3c-1.1,1-2.5,1.7-3.7,2.3c-1.6,0.6-3.2,0.9-4.7,0.9c-2.8,0-5.1-0.8-7.4-2.3c0.4,0,0.8,0.1,1.2,0.1
	c2.3,0,4.1-0.7,6-2.2c-1.1,0-2.1-0.4-2.9-1c-0.9-0.7-1.5-1.5-1.8-2.5c0.4,0.1,0.7,0.1,0.9,0.1c0.4,0,0.9-0.1,1.3-0.2
	c-1.2-0.2-2.1-0.8-2.9-1.7c-0.8-0.9-1.1-2-1.1-3.2v-0.2c0.7,0.4,1.5,0.6,2.3,0.6c-0.7-0.5-1.2-1.1-1.6-1.8c-0.4-0.7-0.6-1.5-0.6-2.4
	c0-0.9,0.2-1.8,0.7-2.5c1.3,1.6,2.8,2.8,4.3,3.4c1.7,0.8,3.4,1.4,5.5,1.5c-0.1-0.4-0.1-0.8-0.1-1.2c0-1.4,0.5-2.6,1.5-3.3
	c1-0.9,2.2-1.5,3.3-1.5c1.5,0,2.7,0.5,3.4,1.6c1.2-0.2,2.2-0.6,3.2-1.2c-0.4,1.2-1.1,2.1-2.2,2.8
	C-215.1,244.5-214.1,244.3-213.5,244z"/>
</svg>
